<svg xmlns="http://www.w3.org/2000/svg" xmlns:xlink="http://www.w3.org/1999/xlink" width="176" height="78.435" viewBox="0 0 176 78.435">
  <defs>
    <clipPath id="clip-path">
      <rect id="Rectangle_1409" data-name="Rectangle 1409" width="176" height="78.435" transform="translate(0 0)" fill="none"/>
    </clipPath>
  </defs>
  <g id="Group_681" data-name="Group 681" transform="translate(0 0)">
    <rect id="Rectangle_1404" data-name="Rectangle 1404" width="36.047" height="36.372" transform="translate(0 41.641)" fill="#1a1818"/>
    <path id="Path_1591" data-name="Path 1591" d="M51.872,30.709H54.3L15.816,72.131,3.362,48.92,4.918,47.5,15.629,64.168,51.871,30.709" fill="#c21d29" fill-rule="evenodd"/>
    <g id="Group_682" data-name="Group 682">
      <g id="Group_681-2" data-name="Group 681" clip-path="url(#clip-path)">
        <path id="Path_1592" data-name="Path 1592" d="M67.236,14.021l7.74-.033V5.823S74.588,0,65.694,0c-8.1,0-8.3,5.888-8.3,5.888v26.9s.592,5.89,8.7,5.855c7.414-.033,8.859-5.726,8.859-5.726V23.031H67.269v8.3s.164,1.432-1.116,1.465-1.116-1.627-1.116-1.627V7.742S64.873,5.79,66.12,5.79c1.214,0,1.083,1.92,1.083,1.92Z" fill="#c21d29"/>
        <path id="Path_1593" data-name="Path 1593" d="M76.277,1.2h7.092L83.2,11.125s2.419-3.142,4.42-2.9A3.9,3.9,0,0,1,92.2,11.8c.059.493.094,1.639.094,1.639V38.5H85.2V14.847s.013-1.111-.9-1.083c-.895.029-.895,1.072-.895,1.072V77.8H76.236Z" fill="#c21d29"/>
        <rect id="Rectangle_1405" data-name="Rectangle 1405" width="6.868" height="29.958" transform="translate(113.323 8.688)" fill="#c21d29"/>
        <rect id="Rectangle_1406" data-name="Rectangle 1406" width="6.731" height="5.854" transform="translate(113.324 1.199)" fill="#c11d2a"/>
        <path id="Path_1594" data-name="Path 1594" d="M131.35,19.321l6.771-.024V12.846s-.339-4.6-8.121-4.6c-7.093,0-7.264,4.65-7.264,4.65V34.147s.517,4.652,7.609,4.624c6.488-.026,7.75-4.522,7.75-4.522v-7.81h-6.717v6.552a.984.984,0,0,1-.976,1.156c-1.119.026-.977-1.286-.977-1.286v-18.5s-.142-1.542.949-1.542c1.062,0,.947,1.517.947,1.517Z" fill="#c21d29"/>
        <path id="Path_1595" data-name="Path 1595" d="M156.159,13.617s-.464-5.276-8.187-5.36c-7.1-.075-7.722,5.821-7.722,5.821V33.063s.926,5.958,7.722,5.819c7.491-.153,8.187-5.512,8.187-5.512V26.479h-6.8v6.2s-.237,1.071-1.082,1a1.086,1.086,0,0,1-.927-1l-.077-8.038h8.882Zm-6.874,1v5.359h-2.008l-.078-5.434a1.052,1.052,0,0,1,1-1.227c1.235-.08,1.082,1.3,1.082,1.3" fill="#c21d29"/>
        <path id="Path_1596" data-name="Path 1596" d="M103.027,8.264c-8.132-.022-7.919,6.323-7.919,6.323v18s.419,6.6,8.1,6.391c7.895-.21,7.984-6.076,7.984-6.076V14.492s-.026-6.2-8.16-6.228m1.068,24.41s.021,1.1-.95,1.1-.972-1.18-.972-1.18V14.262a1.008,1.008,0,0,1,.941-.757.925.925,0,0,1,.981.817Z" fill="#c21d29" fill-rule="evenodd"/>
        <path id="Path_1597" data-name="Path 1597" d="M50.549,53.916h7.564V45.788s-.058-5.983-8.9-5.983c-7.561,0-8.622,5.165-8.707,5.542a52.522,52.522,0,0,0,0,7.309c0,.043-.318,3.45,6.447,8.292a10.73,10.73,0,0,1,3.555,7.108c.025.227,0,3.467,0,3.467s.057,1.061-.9,1.117c-.983.057-1.185-1.2-1.185-1.2v-8.31H40.884v9.342s.26,5.739,8.786,5.96c7.748.2,8.557-5.158,8.557-5.158s.207-3.374.221-3.85-.221-3.915-.221-3.915a12.628,12.628,0,0,0-6.042-9.515A8.564,8.564,0,0,1,48.255,50s-.693-4.4.955-4.4c1.546,0,1.339,1.89,1.339,1.89Z" fill="#1a1818" fill-rule="evenodd"/>
        <path id="Path_1598" data-name="Path 1598" d="M67.039,47.345c-8.133-.022-7.921,6.324-7.921,6.324v18s.421,6.6,8.1,6.391c7.9-.208,7.984-6.076,7.984-6.076V53.573s-.026-6.2-8.159-6.228m1.067,24.41s.022,1.1-.95,1.1-.973-1.181-.973-1.181V53.343a1.011,1.011,0,0,1,.944-.757.923.923,0,0,1,.979.817Z" fill="#1a1818" fill-rule="evenodd"/>
        <path id="Path_1599" data-name="Path 1599" d="M84.539,47.807l.007,25.017s-.06,5.148,4.1,5.273a5.572,5.572,0,0,0,4.515-2.281v1.843H100.6V47.821H93.338V70.812s.087,1.386-.9,1.386c-1.125,0-.962-1.386-.962-1.386l-.007-23Z" fill="#1a1818" fill-rule="evenodd"/>
        <path id="Path_1600" data-name="Path 1600" d="M103.167,42.313l7.134.008V47.8h1.751V52.96h-1.8v19.1a.9.9,0,0,0,.926.563c.333.012,1.007,0,1.007,0V77.8h-4.96s-3.7.511-4.031-5.029c-.008-.153,0-19.738,0-19.738h-1.545V47.8h1.52Z" fill="#1a1818" fill-rule="evenodd"/>
        <rect id="Rectangle_1407" data-name="Rectangle 1407" width="6.868" height="29.958" transform="translate(113.323 48.109)" fill="#1a1818"/>
        <rect id="Rectangle_1408" data-name="Rectangle 1408" width="6.731" height="5.856" transform="translate(113.324 40.619)" fill="#1a1818"/>
        <path id="Path_1601" data-name="Path 1601" d="M129.125,47.345c-8.132-.022-7.919,6.324-7.919,6.324v18s.42,6.6,8.1,6.391c7.894-.208,7.983-6.076,7.983-6.076V53.573s-.027-6.2-8.16-6.228m1.07,24.41s.019,1.1-.952,1.1-.973-1.181-.973-1.181V53.343a1.009,1.009,0,0,1,.943-.757.927.927,0,0,1,.982.817Z" fill="#1a1818" fill-rule="evenodd"/>
        <path id="Path_1602" data-name="Path 1602" d="M165.107,53.916h7.565V45.788s-.059-5.983-8.9-5.983c-7.563,0-8.621,5.165-8.706,5.542a52.522,52.522,0,0,0,0,7.309c0,.043-.317,3.45,6.445,8.292a10.728,10.728,0,0,1,3.556,7.108c.026.227,0,3.467,0,3.467s.058,1.061-.9,1.117c-.983.057-1.185-1.2-1.185-1.2v-8.31h-7.544v9.342s.26,5.739,8.787,5.96c7.747.2,8.557-5.158,8.557-5.158s.206-3.374.22-3.85-.22-3.915-.22-3.915a12.632,12.632,0,0,0-6.042-9.515A8.57,8.57,0,0,1,162.812,50s-.692-4.4.956-4.4c1.547,0,1.339,1.89,1.339,1.89Z" fill="#1a1818" fill-rule="evenodd"/>
        <path id="Path_1603" data-name="Path 1603" d="M138.4,47.805h6.738v2.324a4.715,4.715,0,0,1,4.514-2.614c.351.012,3.809-.058,4.22,3.485.052.461,0,26.785,0,26.785h-6.741V54.545s.191-1.523-1-1.511c-1.113.011-.937,1.394-.937,1.394l-.015,23.344h-6.76Z" fill="#1a1818" fill-rule="evenodd"/>
        <path id="Path_1604" data-name="Path 1604" d="M173.791,37.144a2.234,2.234,0,1,1-.01,0Zm-.01.346a1.89,1.89,0,0,0,.01,3.777,1.891,1.891,0,0,0,0-3.777Zm-.42,3.182h-.4V38.185a4.5,4.5,0,0,1,.71-.059,1.323,1.323,0,0,1,.78.188.592.592,0,0,1,.23.515.62.62,0,0,1-.49.6v.021c.219.04.369.238.419.6a2.02,2.02,0,0,0,.16.614h-.419a1.8,1.8,0,0,1-.171-.634.467.467,0,0,0-.539-.436h-.28Zm0-1.377h.29c.329,0,.609-.119.609-.426,0-.218-.16-.437-.609-.437a2.3,2.3,0,0,0-.29.019Z" fill="#1a1818"/>
      </g>
    </g>
  </g>
</svg>
